<?xml version="1.0" encoding="UTF-8" standalone="no"?>
<!-- Created with Inkscape (http://www.inkscape.org/) -->

<svg
   width="50.799999mm"
   height="50.799999mm"
   viewBox="0 0 50.799999 50.799999"
   version="1.1"
   id="svg5"
   xml:space="preserve"
   inkscape:version="1.2.1 (9c6d41e410, 2022-07-14)"
   sodipodi:docname="logo_vector.svg"
   xmlns:inkscape="http://www.inkscape.org/namespaces/inkscape"
   xmlns:sodipodi="http://sodipodi.sourceforge.net/DTD/sodipodi-0.dtd"
   xmlns="http://www.w3.org/2000/svg"
   xmlns:svg="http://www.w3.org/2000/svg"><sodipodi:namedview
     id="namedview7"
     pagecolor="#ffffff"
     bordercolor="#000000"
     borderopacity="0.25"
     inkscape:showpageshadow="2"
     inkscape:pageopacity="0.0"
     inkscape:pagecheckerboard="0"
     inkscape:deskcolor="#d1d1d1"
     inkscape:document-units="mm"
     showgrid="false"
     inkscape:zoom="3.0787879"
     inkscape:cx="98.415354"
     inkscape:cy="117.25394"
     inkscape:window-width="1821"
     inkscape:window-height="1051"
     inkscape:window-x="-9"
     inkscape:window-y="-9"
     inkscape:window-maximized="1"
     inkscape:current-layer="layer1" /><defs
     id="defs2" /><g
     inkscape:label="Layer 1"
     inkscape:groupmode="layer"
     id="layer1"
     transform="translate(-80.818748,-98.693748)"
     style="display:inline"><path
       style="display:inline;fill:#b0b96a;fill-opacity:1;stroke-width:0.264583"
       d="m 111.39444,136.77513 c -1.76023,-0.0112 -3.84947,-0.21315 -5.24186,-0.50671 -1.27332,-0.26844 -4.0347,-0.99066 -6.1364,-1.60491 -3.360038,-0.98202 -3.942869,-1.08286 -4.828626,-0.8354 -0.554042,0.15478 -2.046977,0.70677 -3.317635,1.22665 C 90.599261,135.57464 89.435454,136 89.283683,136 c -0.151772,0 -0.395396,-0.31417 -0.541386,-0.69816 -0.145991,-0.38398 -0.22047,-0.74312 -0.165509,-0.79808 0.05496,-0.055 1.15962,-0.40556 2.454799,-0.7791 1.295178,-0.37355 3.077487,-1.02225 3.960686,-1.44157 0.8832,-0.41931 2.160304,-1.25046 2.83801,-1.847 0.677706,-0.59655 1.873094,-1.99972 2.656417,-3.11817 0.78332,-1.11845 2.15536,-3.24994 3.04897,-4.73665 0.89361,-1.4867 1.62474,-2.76453 1.62474,-2.83961 0,-0.0751 0.49033,-0.94228 1.08962,-1.92711 0.59928,-0.98483 1.75831,-2.62248 2.5756,-3.63923 0.81729,-1.01675 1.99856,-2.35394 2.62503,-2.97155 0.62647,-0.6176 1.68984,-1.4457 2.36303,-1.84022 0.6732,-0.39452 3.72467,-1.64154 6.78106,-2.77115 3.05638,-1.12962 5.65687,-1.99216 5.77887,-1.91677 0.12199,0.0754 0.39,0.46233 0.59556,0.85985 0.20557,0.39752 0.70007,2.20568 1.09889,4.01812 0.63311,2.87718 0.72813,3.89971 0.74884,8.05786 0.0166,3.34423 -0.0867,5.15646 -0.34719,6.08541 -0.20399,0.72761 -0.71245,2.02467 -1.1299,2.88237 -0.41746,0.85769 -1.16684,2.11501 -1.66529,2.79404 -0.49845,0.67903 -1.89499,2.18271 -3.10342,3.34151 -1.20844,1.1588 -2.61387,2.30348 -3.1232,2.54373 -0.50932,0.24025 -1.8712,0.68396 -3.02639,0.98602 -1.54992,0.40528 -2.86735,0.54433 -5.02708,0.53059 z m -0.51882,-10.05232 c 0.45123,0.009 1.19537,-0.11394 1.65365,-0.2737 0.45827,-0.15975 0.83323,-0.45322 0.83323,-0.65214 0,-0.19893 -0.23813,-0.48913 -0.52917,-0.64489 -0.45222,-0.24202 -0.52917,-0.55399 -0.52917,-2.14538 0,-1.5516 0.0692,-1.8479 0.41513,-1.77662 0.22831,0.047 0.83426,1.03804 1.34655,2.20221 0.51228,1.16417 1.05443,2.26549 1.20477,2.44739 0.15034,0.18191 0.36056,0.33073 0.46716,0.33073 0.1066,0 0.68886,-1.06547 1.29391,-2.36772 0.60505,-1.30225 1.22555,-2.44527 1.37889,-2.54004 0.15334,-0.0948 0.36017,-0.0906 0.45963,0.009 0.0995,0.0999 0.15737,0.83964 0.12869,1.64384 -0.0316,0.88626 -0.21399,1.64101 -0.46302,1.91619 -0.22598,0.24971 -0.41087,0.63388 -0.41087,0.85373 0,0.21984 0.30325,0.53789 0.6739,0.70677 0.37065,0.16888 1.30539,0.30705 2.07719,0.30705 0.7718,0 1.77823,-0.13071 2.23651,-0.29047 0.48866,-0.17034 0.83323,-0.47427 0.83323,-0.73494 0,-0.24447 -0.22043,-0.63322 -0.48984,-0.8639 -0.3708,-0.31749 -0.53376,-0.96071 -0.67057,-2.64679 -0.0994,-1.22506 -0.10136,-2.9027 -0.004,-3.72809 0.10548,-0.89741 0.37505,-1.71394 0.67057,-2.03115 0.27181,-0.29175 0.49419,-0.64774 0.49419,-0.79109 0,-0.14336 -0.26462,-0.44599 -0.58804,-0.67252 -0.33067,-0.23161 -1.13485,-0.41188 -1.83734,-0.41188 -0.92511,0 -1.41923,0.15447 -1.90422,0.59531 -0.36022,0.32742 -1.09263,1.45852 -1.62759,2.51354 -0.53496,1.05503 -1.13988,1.91823 -1.34427,1.91823 -0.20439,0 -0.69901,-0.60418 -1.09915,-1.34263 -0.40014,-0.73845 -1.06214,-1.88503 -1.47112,-2.54795 -0.7436,-1.20532 -0.7436,-1.20532 -2.60271,-1.0723 -1.21225,0.0867 -2.00763,0.28155 -2.28598,0.5599 -0.39279,0.39279 -0.36707,0.48932 0.32202,1.20856 0.74889,0.78169 0.74889,0.78169 0.62868,4.54852 -0.11188,3.50576 -0.16011,3.79332 -0.69588,4.14905 -0.31661,0.21023 -0.57566,0.55014 -0.57566,0.75536 0,0.20522 0.26789,0.4808 0.59531,0.61241 0.32743,0.13161 0.9645,0.24684 1.41573,0.25606 z m -23.491041,0.52505 c -0.773551,-0.0115 -1.555284,-0.0809 -1.737185,-0.15434 -0.181901,-0.0734 -0.330729,-0.34713 -0.330729,-0.6083 0,-0.26116 0.259047,-0.64685 0.575661,-0.85707 0.535064,-0.35527 0.584012,-0.64388 0.694068,-4.09237 0.118406,-3.71014 0.118406,-3.71014 -0.639956,-4.41334 -0.61351,-0.56887 -0.703396,-0.79033 -0.47059,-1.1594 0.158275,-0.25092 0.57416,-0.53635 0.92419,-0.6343 0.35003,-0.0979 1.150261,-0.18995 1.778291,-0.20445 0.628031,-0.0145 1.361782,0.0913 1.630558,0.23516 0.268777,0.14385 1.041091,1.27494 1.716254,2.51354 0.675163,1.23861 1.370162,2.25147 1.544442,2.25081 0.17428,-6.6e-4 0.83792,-1.02135 1.474756,-2.26821 0.796134,-1.55874 1.359481,-2.34365 1.803161,-2.51234 0.354904,-0.13494 1.106028,-0.24534 1.669164,-0.24534 0.563137,0 1.329292,0.11612 1.702568,0.25804 0.373278,0.14192 0.678678,0.45996 0.678678,0.70677 0,0.2468 -0.20836,0.67918 -0.463017,0.96084 -0.396028,0.43801 -0.46302,1.06582 -0.46302,4.3391 0,3.36971 0.05532,3.85793 0.46302,4.08593 0.254657,0.14242 0.463017,0.48697 0.463017,0.76566 0,0.27869 -0.23029,0.62997 -0.511768,0.78061 -0.281475,0.15064 -1.420396,0.27389 -2.530936,0.27389 -1.11054,0 -2.249461,-0.12325 -2.530936,-0.27389 -0.281475,-0.15064 -0.511772,-0.42985 -0.511772,-0.62046 0,-0.1906 0.238125,-0.56205 0.529166,-0.82544 0.414191,-0.37484 0.529167,-0.81491 0.529167,-2.02539 0,-0.85057 -0.104484,-1.54649 -0.232186,-1.54649 -0.127703,0 -0.349913,0.14883 -0.4938,0.33073 -0.143887,0.1819 -0.596396,1.10464 -1.005575,2.05052 -0.40918,0.94589 -0.917257,1.92534 -1.129062,2.17657 -0.211804,0.25123 -0.502504,0.38422 -0.646,0.29554 -0.143497,-0.0887 -0.781932,-1.28384 -1.418746,-2.65589 -0.644898,-1.38947 -1.275546,-2.4219 -1.423529,-2.33044 -0.146127,0.0903 -0.265685,0.87271 -0.265685,1.73868 0,1.24705 0.110042,1.66869 0.529167,2.02756 0.291041,0.24919 0.529166,0.60103 0.529166,0.78185 0,0.18082 -0.230297,0.45202 -0.511773,0.60266 -0.281474,0.15064 -1.144677,0.26449 -1.918229,0.253 z"
       id="path235" /></g></svg>
